{
  "PC_mic": {
    "type": "source",
    "priority": 0,
    "device": "alsa_input.pci-0000_00_1f.3.analog-stereo",
    "volume": "30%"
  },
  "PC_speaker": {
    "type": "sink",
    "priority": 0,
    "volume": "70%",
    "device": "alsa_output.pci-0000_00_1f.3.analog-stereo"
  },
  "webcam_mic": {
    "type": "source",
    "priority": 0,
    "device": "alsa_input.usb-Vimicro_corp._PC-LM1E_Camera_PC-LM1E_Audio-02.analog-stereo"
  },
  "tonor": {
    "type": "source",
    "priority": 5,
    "device": "alsa_input.usb-C-Media_Electronics_Inc._TONOR_TC-777_Audio_Device-00.mono-fallback",
    "volume": "100%"
  },
  "BT_loud_speakers": {
    "type": "sink",
    "priority": 5,
    "volume": "90%",
    "device": "bluez_sink.F4_9B_67_58_E8_37.a2dp_sink"
  },
  "BT_headset_a2dp": {
    "type": "sink",
    "priority": 10,
    "volume": "70%",
    "device": "bluez_sink.94_DB_56_DE_E2_57.a2dp_sink"
  },
  "BT_headset_mic": {
    "type": "source",
    "priority": 10,
    "volume": "100%",
    "device": "bluez_source.94_DB_56_DE_E2_57.handsfree_head_unit"
  },
  "BT_headset_hfp": {
    "type": "sink",
    "priority": 10,
    "volume": "70%",
    "device": "bluez_sink.94_DB_56_DE_E2_57.handsfree_head_unit"
  },
  "BT_buds_a2dp": {
    "type": "sink",
    "priority": 10,
    "volume": "70%",
    "device": "bluez_sink.74_74_46_E6_C5_D7.a2dp_sink"
  },
  "BT_buds_mic": {
    "type": "source",
    "priority": 10,
    "device": "bluez_source.74_74_46_E6_C5_D7.handsfree_head_unit",
    "volume": "100%"
  },
  "BT_buds_hfp": {
    "type": "sink",
    "priority": 10,
    "volume": "70%",
    "device": "bluez_sink.74_74_46_E6_C5_D7.handsfree_head_unit"
  }
}
